{
  "collectionName": "components_content_menage_sliders",
  "info": {
    "name": "slider",
    "icon": "images"
  },
  "options": {},
  "attributes": {
    "name": {
      "type": "string"
    },
    "images": {
      "collection": "file",
      "via": "related",
      "allowedTypes": [
        "images",
        "files",
        "videos"
      ],
      "plugin": "upload",
      "required": false
    },
    "auto_play": {
      "type": "boolean",
      "default": false
    },
    "loop": {
      "type": "boolean",
      "default": false
    },
    "per_page": {
      "type": "integer",
      "default": 1
    },
    "auto_play_time": {
      "type": "integer"
    },
    "pagination": {
      "type": "boolean",
      "default": true
    },
    "navigation": {
      "type": "boolean",
      "default": false
    }
  }
}
